{
  "type": "service_account",
  "project_id": "t-osprey-306302",
  "private_key_id": "738cdc526558831c962d790b27a584e47edb3d21",
  "private_key": "-----BEGIN PRIVATE KEY-----\nMIIEvgIBADANBgkqhkiG9w0BAQEFAASCBKgwggSkAgEAAoIBAQDmVczwkG5isD8h\nx1Ejr0DkyFdnj72Ra23jHjTsmQ5z4YH1/gU1ConRIC9xIutOQx/HPEff4Lz/4eYu\npQ5+DkNQtUYcr2xy0UQtWtk/U+63AgpxliZR9Z5zEhr4iAzyYDFa4bx3lXHnP4zP\ng4RLGW3XB+U/JqEjWKkkYVQnlOYGj47vcDo6o5xcovQGFODpZx6Mdz6nsfTmD1I+\nsprGQPLqCupWB1AF4Zfx/iVF8+9sgcTbj/AYPn37q97g+8O3J0Yv2VyUyBy4zP1S\nbKBIKpb9N/m8w4gUpVRX14tzeAtt6/Q5/VHHTr9AOdVuowanc0B/F5Q96d2opHnt\n6rswwruvAgMBAAECggEAJLKP29YPGD8fV9jjNw3Bh5HZxyCyIbydfd1+riF2mYTY\nyWIG31wF+CEqHdrj5YyxP/N9OhCa3CPYIh9fDztjgzTWblSOsT5hH97FFR9gvZyg\nIFe9VDqPW6MLVASNF4K26lVjyyOuyZqo6xj3l2V+SA+0eRrE+pYyIJ83IrVI7stc\nKDbNvdHn4Vi5a5m8D70NYBu2ir4FtIntT154TIFahGci/TuwNVhxB74FBU81jh8k\n6o6fExNvDLqGLntiHfS0TRRCqzsg769As2SIuI8WgVD+8LdupBlTS/unnKanxtnk\ndd8f40tchRtwUiTnBFOMeArWTxTq8hS2sMgfYBRwLQKBgQD0HrPuiIZVjyX70y2L\nY3KctaNw/wLtAicPsYIbtOBcfNzV1qGFbm9+0kdMTUUdC34HkX82hhE5RQbJ4WXq\nCR7j2tpo3kkrPWj9vh6Qges2WHmyxlpmvR0dVNcRKuDWC0r7g0h6Ovv9TMAD5UBM\n6dA7u2Bcx2vwrgiID3Xnrlb2JQKBgQDxi100mOHXU9RbFRlI3FC9SlCq5OWxqRlD\nEkauPYFRZz4z+BfZ/N8CFcuxelN5BEKEAuobRMMwrbsc/a8D4OLzpyDRIY6FJL2v\ntbdykMqvRg50nwul+AZZFWQmxO/nDTF4aCmQTVgFbJTQaCWJvfdW6IiWgdNhhe0d\nogZxwMYQQwKBgDC258UT7WqpdDT6gT4tjDOFc6Ya3WSaZ10UWRhaUeNi71aky/qq\nfQlbwOqTCNWw82djO3WP72P0SFSE7Cd1xnpFtAv1P7inOopYJBVGN7/SjAaG2odh\n+atewMQmQFO2UTI7kn0BxENZy397ggdXKTyiOaqKCRowQHeWTjr7aVMZAoGBAMQF\n9/Qxhka7r4DjlIt+0L9tyh2Geao+s1OtR1MscwBfKyn9002DXHBSw+YagheaD2kW\n/Gp42Xdt5oZWkmwxW72lCoruEr2W3aH1dRUy0GqCDkUytb9Rk8VECO01sgPuvxEa\nZ3DGdAKi5fpkKuKoGkyblg2e+q8QgygjT9uNOLAFAoGBAOXVT21zDi4kftPSMX69\n4mj9KcGuzgT8JRNGd+FHP22YaG512wV0bOFTvezOyCbG5cQvJK0e1Lfyn90L+QIu\nxojSIcH4Av7I/9gfgHFnY8E7SqoKEPS5ufWnewJ8b/9sSNzTENSi2lRRrTwEYYgg\nAMo2pbH15e4G2S02x+eZ7Wuo\n-----END PRIVATE KEY-----\n",
  "client_email": "sheetsdisbursement@t-osprey-306302.iam.gserviceaccount.com",
  "client_id": "104747837316929796087",
  "auth_uri": "https://accounts.google.com/o/oauth2/auth",
  "token_uri": "https://oauth2.googleapis.com/token",
  "auth_provider_x509_cert_url": "https://www.googleapis.com/oauth2/v1/certs",
  "client_x509_cert_url": "https://www.googleapis.com/robot/v1/metadata/x509/sheetsdisbursement%40t-osprey-306302.iam.gserviceaccount.com"
}
