{
  "version": "1.0",
  "defaultProvider": "cdnjs",
  "libraries": [
    {
      "library": "blueimp-md5@2.10.0",
      "destination": "wwwroot/lib/blueimp-md5/"
    },
    {
      "provider": "cdnjs",
      "library": "bootstrap-switch@3.3.4",
      "destination": "wwwroot/lib/bootstrap-switch/"
    },    
    {
      "library": "aspnet-signalr@1.1.4",
      "destination": "wwwroot/lib/aspnet-signalr/"
    }
  ]
}