{
  "iisSettings": {
    "windowsAuthentication": false,
    "anonymousAuthentication": true,
    "iis": {
      "applicationUrl": "http://localhost/LOS.WebApp",
      "sslPort": 0
    },
    "iisExpress": {
      "applicationUrl": "http://localhost:52952",
      "sslPort": 0
    }
  },
  "profiles": {
    "LOS.WebApp": {
      "commandName": "IISExpress",
      "launchBrowser": true,
      "environmentVariables": {
        "Key": "Value",
        "REDIS": "178.128.86.175:63799",
        "ASPNETCORE_ENVIRONMENT": "Development"
      },
      "applicationUrl": "http://localhost:8888"
    },
    "Docker": {
      "commandName": "Docker",
      "launchBrowser": true,
      "launchUrl": "{Scheme}://{ServiceHost}:{ServicePort}",
      "publishAllPorts": true
    }
  }
}